642 = {

    # Misc
    culture = surani
    religion = cult_of_the_dame

    # History
}

643 = {

    # Misc
    culture = surani
    religion = cult_of_the_dame

    # History
}

644 = {

    # Misc
    culture = surani
    religion = cult_of_the_dame

    # History
}

647 = {

    # Misc
    culture = surani
    religion = cult_of_the_dame

    # History
}

558 = {

    # Misc
    culture = surani
    religion = cult_of_the_dame

    # History
}

585 = {

    # Misc
    culture = surani
    religion = cult_of_the_dame

    # History
}

645 = {

    # Misc
    culture = surani
    religion = cult_of_the_dame

    # History
}

646 = {

    # Misc
    culture = surani
    religion = cult_of_the_dame

    # History
}

648 = {

    # Misc
    culture = surani
    religion = cult_of_the_dame

    # History
}